MA415 Midterm Project
…
Here, I want to isolate the name of the chemicals being used from the ‘Chemical’ column in chemicals_df from the numbers so I can later filter through based just on chemical name.

# A tibble: 71 × 1
   Chemical         
   <chr>            
 1 AZOXYSTROBIN     
 2 BORAX DECAHYDRATE
 3 BOSCALID         
 4 CAPTAN           
 5 CYPRODINIL       
 6 FENHEXAMID       
 7 FLUDIOXONIL      
 8 FLUOPYRAM        
 9 FLUXAPYROXAD     
10 MEFENOXAM        
# ℹ 61 more rows
…
